{
    "contratante":{
       "primeiroNome":"Danilo",
       "sobrenome":"Sgrott",
       "dataDeNascimento":"15/12/1984",
       "estadoCivil":"solteiro",
       "cpf":"12342809890",
       "telefone":"11946463333",
       "profissao":"Analista de Sistemas",
       "endereçoResidencial":"Rua Nespereira, 39",
       "bairroResidencial":"Jardim Santa Matia",
       "cidadeResidencial":"São Paulo",
       "cepResidencial":"03575-030",
       "email":"dsgrott@me.com"
    },
    "itemSegurado":{
       "tipo":"automovel",
       "automovel":{
          "modelo":"modelo",
          "fabricante":"fabricante",
          "cor":"cor",
          "anoModelo":"2019",
          "anoFabricacao":"2019"
       },
       "vida":{
          "primeiroNome":"Danilo",
          "sobrenome":"Sgrott",
          "dataDeNascimento":"15/12/1984",
          "estadoCivil":"solteiro",
          "cpf":"12342809890",
          "profissao":"Analista de Sistemas"
       },
       "residencia":{
          "endereçoResidencial":"Rua Nespereira, 39",
          "bairroResidencial":"Jardim Santa Matia",
          "cidadeResidencial":"São Paulo",
          "cepResidencial":"03575-030"
       },
       "aparelho":{
          "tipo":"celular",
          "modelo":"modelo",
          "fabricante":"fabricante",
          "valor":"1500,00"
       }
    },
    "cobertura":{
       "BAS":"20000.00",
       "FURTO":"0.00",
       "MORTE":"0.00"
    },
    "criticas":{
      "criticado":false,
      "listaDeCriticas":["001 - Data de nacimento invalida.",
          "002 - Profissão invalida",
          "003 - CPF invalido",
          "004 - Seguro não permitido para essa modalidade"]
    },
    "opcoesDeCompra":{
       "valorTotal":"1236.00",
       "formaPagamento":[
          {
             "forma":"A vista",
             "tipo":"Boleto",
             "parcelas":"1",
             "valor":"1236.00"
          },
          {
             "forma":"Parcelado",
             "tipo":"Boleto",
             "parcelas":"2",
             "valor":"600.00"
          },
          {
             "forma":"Parcelado",
             "tipo":"Boleto",
             "parcelas":"3",
             "valor":"200.00"
          }
       ]
    },
    "opcoesDeSelecao":{
       "formaPagamento":{
          "forma":"A vista",
          "tipo":"Boleto",
          "parcelas":"1",
          "valor":"1236.00"
       },
       "dadosBancarios":null,
       "cartaoCredito":null
    },
    "parcelas":[{
       "parcela":"1",
       "valor":"200.00",
       "status":"Pendente",
       "vencimento":"12/05/2022"
    }],
    "integracoes":["001-Documentos Gerados",
                  "002 - Documentos enviado", 
                  "003 - Integracao com Financeiro"],     
    "Created_date": null,
    "status": "Novo"
 }